Mult/bin/wave.vcd
$date
	Sat Apr  6 19:52:06 2024
$end
$version
	Icarus Verilog
$end
$timescale
	1s
$end
$scope module Mult_Booth2_tb $end
$var wire 132 ! result [131:0] $end
$var wire 1 " data_ok $end
$var reg 66 # X [65:0] $end
$var reg 66 $ Y [65:0] $end
$var reg 1 % clk $end
$scope module uut $end
$var wire 66 & X [65:0] $end
$var wire 66 ' Y [65:0] $end
$var wire 1 % clk $end
$var wire 132 ( result [131:0] $end
$var reg 66 ) Acc [65:0] $end
$var reg 67 * Y_reg [66:0] $end
$var reg 7 + count [6:0] $end
$var reg 1 " data_ok $end
$var reg 2 , state [1:0] $end
$var reg 66 - x_neg [65:0] $end
$upscope $end
$scope begin $ivl_for_loop0 $end
$var integer 32 . i [31:0] $end
$upscope $end
$upscope $end
$enddefinitions $end
#0
$dumpvars
b0 .
bx -
b0 ,
bx +
bx *
bx )
b0xxxxxxxxxxxxxxxxxxxxxxxxxxxxxxxxxxxxxxxxxxxxxxxxxxxxxxxxxxxxxxxxxxxxxxxxxxxxxxxxxxxxxxxxxxxxxxxxxxxxxxxxxxxxxxxxxxxxxxxxxxxxxxxxxxx (
b111111111111111111111111111111111111111111111111111111111111111111 '
b111111111111111111111111111111111111111111111111111111111111111111 &
0%
b111111111111111111111111111111111111111111111111111111111111111111 $
b111111111111111111111111111111111111111111111111111111111111111111 #
x"
b0xxxxxxxxxxxxxxxxxxxxxxxxxxxxxxxxxxxxxxxxxxxxxxxxxxxxxxxxxxxxxxxxxxxxxxxxxxxxxxxxxxxxxxxxxxxxxxxxxxxxxxxxxxxxxxxxxxxxxxxxxxxxxxxxxxx !
$end
#5
b1 ,
0"
b1111111111111111111111111111111111111111111111111111111111111111110 *
b11111111111111111111111111111111111111111111111111111111111111111 !
b11111111111111111111111111111111111111111111111111111111111111111 (
b0 )
b1 -
b0 +
1%
#10
b1 .
0%
#15
b1 +
b1111111111111111111111111111111111111111111111111111111111111111111 *
b11111111111111111111111111111111111111111111111111111111111111111 !
b11111111111111111111111111111111111111111111111111111111111111111 (
b0 )
1%
#20
b10 .
0%
#25
b10 +
b111111111111111111111111111111111111111111111111111111111111111111 *
1%
#30
b11 .
0%
#35
b1111111111111111111111111111111111111111111111111111111111111111 !
b1111111111111111111111111111111111111111111111111111111111111111 (
b11 +
b11111111111111111111111111111111111111111111111111111111111111111 *
1%
#40
b100 .
0%
#45
b111111111111111111111111111111111111111111111111111111111111111 !
b111111111111111111111111111111111111111111111111111111111111111 (
b100 +
b1111111111111111111111111111111111111111111111111111111111111111 *
1%
#50
b101 .
0%
#55
b11111111111111111111111111111111111111111111111111111111111111 !
b11111111111111111111111111111111111111111111111111111111111111 (
b101 +
b111111111111111111111111111111111111111111111111111111111111111 *
1%
#60
b110 .
0%
#65
b1111111111111111111111111111111111111111111111111111111111111 !
b1111111111111111111111111111111111111111111111111111111111111 (
b110 +
b11111111111111111111111111111111111111111111111111111111111111 *
1%
#70
b111 .
0%
#75
b111111111111111111111111111111111111111111111111111111111111 !
b111111111111111111111111111111111111111111111111111111111111 (
b111 +
b1111111111111111111111111111111111111111111111111111111111111 *
1%
#80
b1000 .
0%
#85
b11111111111111111111111111111111111111111111111111111111111 !
b11111111111111111111111111111111111111111111111111111111111 (
b1000 +
b111111111111111111111111111111111111111111111111111111111111 *
1%
#90
b1001 .
0%
#95
b1111111111111111111111111111111111111111111111111111111111 !
b1111111111111111111111111111111111111111111111111111111111 (
b1001 +
b11111111111111111111111111111111111111111111111111111111111 *
1%
#100
b1010 .
0%
#105
b111111111111111111111111111111111111111111111111111111111 !
b111111111111111111111111111111111111111111111111111111111 (
b1010 +
b1111111111111111111111111111111111111111111111111111111111 *
1%
#110
b1011 .
0%
#115
b11111111111111111111111111111111111111111111111111111111 !
b11111111111111111111111111111111111111111111111111111111 (
b1011 +
b111111111111111111111111111111111111111111111111111111111 *
1%
#120
b1100 .
0%
#125
b1111111111111111111111111111111111111111111111111111111 !
b1111111111111111111111111111111111111111111111111111111 (
b1100 +
b11111111111111111111111111111111111111111111111111111111 *
1%
#130
b1101 .
0%
#135
b111111111111111111111111111111111111111111111111111111 !
b111111111111111111111111111111111111111111111111111111 (
b1101 +
b1111111111111111111111111111111111111111111111111111111 *
1%
#140
b1110 .
0%
#145
b11111111111111111111111111111111111111111111111111111 !
b11111111111111111111111111111111111111111111111111111 (
b1110 +
b111111111111111111111111111111111111111111111111111111 *
1%
#150
b1111 .
0%
#155
b1111111111111111111111111111111111111111111111111111 !
b1111111111111111111111111111111111111111111111111111 (
b1111 +
b11111111111111111111111111111111111111111111111111111 *
1%
#160
b10000 .
0%
#165
b111111111111111111111111111111111111111111111111111 !
b111111111111111111111111111111111111111111111111111 (
b10000 +
b1111111111111111111111111111111111111111111111111111 *
1%
#170
b10001 .
0%
#175
b11111111111111111111111111111111111111111111111111 !
b11111111111111111111111111111111111111111111111111 (
b10001 +
b111111111111111111111111111111111111111111111111111 *
1%
#180
b10010 .
0%
#185
b1111111111111111111111111111111111111111111111111 !
b1111111111111111111111111111111111111111111111111 (
b10010 +
b11111111111111111111111111111111111111111111111111 *
1%
#190
b10011 .
0%
#195
b111111111111111111111111111111111111111111111111 !
b111111111111111111111111111111111111111111111111 (
b10011 +
b1111111111111111111111111111111111111111111111111 *
1%
#200
b10100 .
0%
#205
b11111111111111111111111111111111111111111111111 !
b11111111111111111111111111111111111111111111111 (
b10100 +
b111111111111111111111111111111111111111111111111 *
1%
#210
b10101 .
0%
#215
b1111111111111111111111111111111111111111111111 !
b1111111111111111111111111111111111111111111111 (
b10101 +
b11111111111111111111111111111111111111111111111 *
1%
#220
b10110 .
0%
#225
b111111111111111111111111111111111111111111111 !
b111111111111111111111111111111111111111111111 (
b10110 +
b1111111111111111111111111111111111111111111111 *
1%
#230
b10111 .
0%
#235
b11111111111111111111111111111111111111111111 !
b11111111111111111111111111111111111111111111 (
b10111 +
b111111111111111111111111111111111111111111111 *
1%
#240
b11000 .
0%
#245
b1111111111111111111111111111111111111111111 !
b1111111111111111111111111111111111111111111 (
b11000 +
b11111111111111111111111111111111111111111111 *
1%
#250
b11001 .
0%
#255
b111111111111111111111111111111111111111111 !
b111111111111111111111111111111111111111111 (
b11001 +
b1111111111111111111111111111111111111111111 *
1%
#260
b11010 .
0%
#265
b11111111111111111111111111111111111111111 !
b11111111111111111111111111111111111111111 (
b11010 +
b111111111111111111111111111111111111111111 *
1%
#270
b11011 .
0%
#275
b1111111111111111111111111111111111111111 !
b1111111111111111111111111111111111111111 (
b11011 +
b11111111111111111111111111111111111111111 *
1%
#280
b11100 .
0%
#285
b111111111111111111111111111111111111111 !
b111111111111111111111111111111111111111 (
b11100 +
b1111111111111111111111111111111111111111 *
1%
#290
b11101 .
0%
#295
b11111111111111111111111111111111111111 !
b11111111111111111111111111111111111111 (
b11101 +
b111111111111111111111111111111111111111 *
1%
#300
b11110 .
0%
#305
b1111111111111111111111111111111111111 !
b1111111111111111111111111111111111111 (
b11110 +
b11111111111111111111111111111111111111 *
1%
#310
b11111 .
0%
#315
b111111111111111111111111111111111111 !
b111111111111111111111111111111111111 (
b11111 +
b1111111111111111111111111111111111111 *
1%
#320
b100000 .
0%
#325
b11111111111111111111111111111111111 !
b11111111111111111111111111111111111 (
b100000 +
b111111111111111111111111111111111111 *
1%
#330
b100001 .
0%
#335
b1111111111111111111111111111111111 !
b1111111111111111111111111111111111 (
b100001 +
b11111111111111111111111111111111111 *
1%
#340
b100010 .
0%
#345
b111111111111111111111111111111111 !
b111111111111111111111111111111111 (
b100010 +
b1111111111111111111111111111111111 *
1%
#350
b100011 .
0%
#355
b11111111111111111111111111111111 !
b11111111111111111111111111111111 (
b100011 +
b111111111111111111111111111111111 *
1%
#360
b100100 .
0%
#365
b1111111111111111111111111111111 !
b1111111111111111111111111111111 (
b100100 +
b11111111111111111111111111111111 *
1%
#370
b100101 .
0%
#375
b111111111111111111111111111111 !
b111111111111111111111111111111 (
b100101 +
b1111111111111111111111111111111 *
1%
#380
b100110 .
0%
#385
b11111111111111111111111111111 !
b11111111111111111111111111111 (
b100110 +
b111111111111111111111111111111 *
1%
#390
b100111 .
0%
#395
b1111111111111111111111111111 !
b1111111111111111111111111111 (
b100111 +
b11111111111111111111111111111 *
1%
#400
b101000 .
0%
#405
b111111111111111111111111111 !
b111111111111111111111111111 (
b101000 +
b1111111111111111111111111111 *
1%
#410
b101001 .
0%
#415
b11111111111111111111111111 !
b11111111111111111111111111 (
b101001 +
b111111111111111111111111111 *
1%
#420
b101010 .
0%
#425
b1111111111111111111111111 !
b1111111111111111111111111 (
b101010 +
b11111111111111111111111111 *
1%
#430
b101011 .
0%
#435
b111111111111111111111111 !
b111111111111111111111111 (
b101011 +
b1111111111111111111111111 *
1%
#440
b101100 .
0%
#445
b11111111111111111111111 !
b11111111111111111111111 (
b101100 +
b111111111111111111111111 *
1%
#450
b101101 .
0%
#455
b1111111111111111111111 !
b1111111111111111111111 (
b101101 +
b11111111111111111111111 *
1%
#460
b101110 .
0%
#465
b111111111111111111111 !
b111111111111111111111 (
b101110 +
b1111111111111111111111 *
1%
#470
b101111 .
0%
#475
b11111111111111111111 !
b11111111111111111111 (
b101111 +
b111111111111111111111 *
1%
#480
b110000 .
0%
#485
b1111111111111111111 !
b1111111111111111111 (
b110000 +
b11111111111111111111 *
1%
#490
b110001 .
0%
#495
b111111111111111111 !
b111111111111111111 (
b110001 +
b1111111111111111111 *
1%
#500
b110010 .
0%
#505
b11111111111111111 !
b11111111111111111 (
b110010 +
b111111111111111111 *
1%
#510
b110011 .
0%
#515
b1111111111111111 !
b1111111111111111 (
b110011 +
b11111111111111111 *
1%
#520
b110100 .
0%
#525
b111111111111111 !
b111111111111111 (
b110100 +
b1111111111111111 *
1%
#530
b110101 .
0%
#535
b11111111111111 !
b11111111111111 (
b110101 +
b111111111111111 *
1%
#540
b110110 .
0%
#545
b1111111111111 !
b1111111111111 (
b110110 +
b11111111111111 *
1%
#550
b110111 .
0%
#555
b111111111111 !
b111111111111 (
b110111 +
b1111111111111 *
1%
#560
b111000 .
0%
#565
b11111111111 !
b11111111111 (
b111000 +
b111111111111 *
1%
#570
b111001 .
0%
#575
b1111111111 !
b1111111111 (
b111001 +
b11111111111 *
1%
#580
b111010 .
0%
#585
b111111111 !
b111111111 (
b111010 +
b1111111111 *
1%
#590
b111011 .
0%
#595
b11111111 !
b11111111 (
b111011 +
b111111111 *
1%
#600
b111100 .
0%
#605
b1111111 !
b1111111 (
b111100 +
b11111111 *
1%
#610
b111101 .
0%
#615
b111111 !
b111111 (
b111101 +
b1111111 *
1%
#620
b111110 .
0%
#625
b11111 !
b11111 (
b111110 +
b111111 *
1%
#630
b111111 .
0%
#635
b1111 !
b1111 (
b111111 +
b11111 *
1%
#640
b1000000 .
0%
#645
b111 !
b111 (
b1000000 +
b1111 *
1%
#650
b1000001 .
0%
#655
b11 !
b11 (
b1000001 +
b111 *
1%
#660
b1000010 .
0%
#665
b1 !
b1 (
b10 ,
b1000010 +
b11 *
1%
#670
b1000011 .
0%
#675
1"
1%
#680
b1000100 .
0%
#685
1%
#690
b1000101 .
0%
#695
1%
#700
b1000110 .
0%
#705
1%
#710
b1000111 .
0%
#715
1%
#720
b1001000 .
0%
#725
1%
#730
b1001001 .
0%
#735
1%
#740
b1001010 .
0%
#745
1%
#750
b1001011 .
0%
#755
1%
#760
b1001100 .
0%
#765
1%
#770
b1001101 .
0%
#775
1%
#780
b1001110 .
0%
#785
1%
#790
b1001111 .
0%
#795
1%
#800
b1010000 .
0%
#805
1%
#810
b1010001 .
0%
#815
1%
#820
b1010010 .
0%
#825
1%
#830
b1010011 .
0%
#835
1%
#840
b1010100 .
0%
#845
1%
#850
b1010101 .
0%
#855
1%
#860
b1010110 .
0%
#865
1%
#870
b1010111 .
0%
#875
1%
#880
b1011000 .
0%
#885
1%
#890
b1011001 .
0%
#895
1%
#900
b1011010 .
0%
#905
1%
#910
b1011011 .
0%
#915
1%
#920
b1011100 .
0%
#925
1%
#930
b1011101 .
0%
#935
1%
#940
b1011110 .
0%
#945
1%
#950
b1011111 .
0%
#955
1%
#960
b1100000 .
0%
#965
1%
#970
b1100001 .
0%
#975
1%
#980
b1100010 .
0%
#985
1%
#990
b1100011 .
0%
#995
1%
#1000
b1100100 .
0%
#1005
1%
#1010
b1100101 .
0%
